…
library(xts)
d <- read_table2(
  "/Users/a182501/project_set/fts/ftsdata/d-ibm-0110.txt", col_types=cols(
    .default=col_double(),
    date=col_date(format="%Y%m%d")))

## Warning: `read_table2()` was deprecated in readr 2.0.0.
## ℹ Please use `read_table()` instead.
## This warning is displayed once every 8 hours.
## Call `lifecycle::last_lifecycle_warnings()` to see where this warning was
## generated.

d

## # A tibble: 2,515 × 2
##    date         return
##    <date>        <dbl>
##  1 2001-01-02 -0.00221
##  2 2001-01-03  0.116  
##  3 2001-01-04 -0.0152 
##  4 2001-01-05  0.00872
##  5 2001-01-08 -0.00465
##  6 2001-01-09 -0.0107 
##  7 2001-01-10  0.00945
##  8 2001-01-11  0.00268
##  9 2001-01-12  0.00133
## 10 2001-01-16 -0.0113 
## # ℹ 2,505 more rows
…
##      Jan Feb Mar Apr May Jun Jul Aug Sep Oct Nov Dec
## 2001   9   6   3   5   4   8   2   5   8   4   6   3
## 2002   2   2   6   4   1   4   2   1   8   9   4   6

library(tidyverse)
library(lubridate)
d <- read_table(
  "/Users/a182501/project_set/fts/ftsdata/d-ibm-0110.txt", col_types=cols(
    .default=col_double(),
    date=col_date(format="%Y%m%d")))
d

## # A tibble: 2,515 × 2
##    date         return
##    <date>        <dbl>
##  1 2001-01-02 -0.00221
##  2 2001-01-03  0.116  
##  3 2001-01-04 -0.0152 
##  4 2001-01-05  0.00872
##  5 2001-01-08 -0.00465
##  6 2001-01-09 -0.0107 
##  7 2001-01-10  0.00945
##  8 2001-01-11  0.00268
##  9 2001-01-12  0.00133
## 10 2001-01-16 -0.0113 
## # ℹ 2,505 more rows
…
finance-quant

library(tidyverse)
library(tidyquant)

prices <- tq_get("AAPL",
  get = "stock.prices",
  from = "2000-01-01",
  to = "2021-12-31"
)
prices

## # A tibble: 5,535 × 8
##    symbol date        open  high   low close     volume adjusted
##    <chr>  <date>     <dbl> <dbl> <dbl> <dbl>      <dbl>    <dbl>
##  1 AAPL   2000-01-03 0.936 1.00  0.908 0.999  535796800    0.851
##  2 AAPL   2000-01-04 0.967 0.988 0.903 0.915  512377600    0.779
##  3 AAPL   2000-01-05 0.926 0.987 0.920 0.929  778321600    0.790
##  4 AAPL   2000-01-06 0.948 0.955 0.848 0.848  767972800    0.722
##  5 AAPL   2000-01-07 0.862 0.902 0.853 0.888  460734400    0.756
##  6 AAPL   2000-01-10 0.911 0.913 0.846 0.873  505064000    0.743
##  7 AAPL   2000-01-11 0.857 0.887 0.808 0.828  441548800    0.705
##  8 AAPL   2000-01-12 0.848 0.853 0.772 0.778  976068800    0.663
##  9 AAPL   2000-01-13 0.844 0.882 0.826 0.864 1032684800    0.735
## 10 AAPL   2000-01-14 0.893 0.913 0.887 0.897  390376000    0.763
## # ℹ 5,525 more rows
…
prices

## # A tibble: 5,535 × 8
##    symbol date        open  high   low close     volume adjusted
##    <chr>  <date>     <dbl> <dbl> <dbl> <dbl>      <dbl>    <dbl>
##  1 AAPL   2000-01-03 0.936 1.00  0.908 0.999  535796800    0.851
##  2 AAPL   2000-01-04 0.967 0.988 0.903 0.915  512377600    0.779
##  3 AAPL   2000-01-05 0.926 0.987 0.920 0.929  778321600    0.790
##  4 AAPL   2000-01-06 0.948 0.955 0.848 0.848  767972800    0.722
##  5 AAPL   2000-01-07 0.862 0.902 0.853 0.888  460734400    0.756
##  6 AAPL   2000-01-10 0.911 0.913 0.846 0.873  505064000    0.743
##  7 AAPL   2000-01-11 0.857 0.887 0.808 0.828  441548800    0.705
##  8 AAPL   2000-01-12 0.848 0.853 0.772 0.778  976068800    0.663
##  9 AAPL   2000-01-13 0.844 0.882 0.826 0.864 1032684800    0.735
## 10 AAPL   2000-01-14 0.893 0.913 0.887 0.897  390376000    0.763
## # ℹ 5,525 more rows

returns <- prices %>%
  arrange(date) %>%
  mutate(ret = lead(adjusted) / adjusted - 1) %>%
  select(symbol, date, ret)
returns <- returns %>%
  drop_na(ret)
returns

## # A tibble: 5,534 × 3
##    symbol date           ret
##    <chr>  <date>       <dbl>
##  1 AAPL   2000-01-03 -0.0843
##  2 AAPL   2000-01-04  0.0146
##  3 AAPL   2000-01-05 -0.0865
##  4 AAPL   2000-01-06  0.0474
##  5 AAPL   2000-01-07 -0.0176
##  6 AAPL   2000-01-10 -0.0512
##  7 AAPL   2000-01-11 -0.0600
##  8 AAPL   2000-01-12  0.110 
##  9 AAPL   2000-01-13  0.0381
## 10 AAPL   2000-01-14  0.0348
## # ℹ 5,524 more rows
…
获得指数的tq_index

ticker <- tq_index("DOW")
ticker

## # A tibble: 30 × 8
##    symbol company      identifier sedol weight sector shares_held local_currency
##    <chr>  <chr>        <chr>      <chr>  <dbl> <chr>        <dbl> <chr>         
##  1 UNH    UnitedHealt… 91324P10   2917… 0.0973 Healt…     5612874 USD           
##  2 GS     Goldman Sac… 38141G10   2407… 0.0639 Finan…     5612874 USD           
##  3 HD     Home Depot … 43707610   2434… 0.0579 Consu…     5612874 USD           
##  4 MSFT   Microsoft C… 59491810   2588… 0.0574 Infor…     5612874 USD           
##  5 MCD    McDonald's … 58013510   2550… 0.0555 Consu…     5612874 USD           
##  6 AMGN   Amgen Inc.   03116210   2023… 0.0487 Healt…     5612874 USD           
##  7 V      Visa Inc. C… 92826C83   B2PZ… 0.0452 Finan…     5612874 USD           
##  8 CAT    Caterpillar… 14912310   2180… 0.0444 Indus…     5612874 USD           
##  9 BA     Boeing Comp… 09702310   2108… 0.0404 Indus…     5612874 USD           
## 10 CRM    Salesforce … 79466L30   2310… 0.0389 Infor…     5612874 USD           
## # ℹ 20 more rows
…
